INDEX VERSION 1.131+D:\mv\worskpase-springboot-mv\.metadata\.plugins\org.eclipse.jdt.core
3839578677.index
686889833.index
2200875372.index
3993276655.index
272110313.index
3470120467.index
3945589405.index
3858944166.index
1627815886.index
2201917265.index
262636451.index
3950645009.index
652409925.index
711050520.index
1430739280.index
561689436.index
3965007078.index
3140650434.index
2973695523.index
1574142418.index
3347480126.index
4045790416.index
1404391170.index
2744471229.index
3119631499.index
2403048951.index
282737940.index
1813715956.index
2912747689.index
549974383.index
289333390.index
3471850624.index
2957219165.index
1141686804.index
2542131987.index
261760045.index
2000345246.index
3146432177.index
3345153934.index
352765115.index
1212387481.index
991284342.index
2793336837.index
368310658.index
656309375.index
2538946849.index
2574323714.index
2567625509.index
1741647643.index
2174604404.index
340469391.index
3300224877.index
3137208772.index
1374952218.index
3128399255.index
2609714019.index
511886496.index
966557971.index
632992879.index
3672180015.index
41401971.index
2985511353.index
318051099.index
2622534208.index
3207893118.index
3896608784.index
4159017284.index
1911478941.index
4057033255.index
3450831843.index
2160319495.index
2396982668.index
1702521607.index
240549023.index
2977799197.index
121994224.index
3342792067.index
5871776.index
3524462756.index
4093130721.index
884009359.index
3764936935.index
1275195934.index
1092654687.index
837060974.index
3280265790.index
1542774334.index
2129162074.index
3323277591.index
615226062.index
3407822664.index
1983738142.index
170389030.index
1762608029.index
702544602.index
1487762133.index
332673330.index
2927308290.index
3567606480.index
3538905475.index
2784805368.index
2457844917.index
572233660.index
3120621047.index
4102790997.index
1163438718.index
2381681328.index
4034885929.index
2197672129.index
1358289262.index
3166927587.index
1148937498.index
1528463117.index
3902336659.index
3720716507.index
1437350137.index
4227522368.index
3767523753.index
3124775296.index
858989570.index
